
[
  {
    "name": "Oh my Deer",
    "picPath": "./pictures/image1.png",
    "articul": "1",
    "color": "gray"
  },
  {
    "name": "Awaken the Hero",
    "picPath": "./pictures/image2.png",
    "articul": "2",
    "color": "gray"
  },
  {
    "name": "Oh my Deer",
    "picPath": "./pictures/image3.png",
    "articul": "3",
    "color": "gray"
  },
  {
    "name": "Ravenna",
    "picPath": "./pictures/image4.png",
    "articul": "4",
    "color": "gray"
  },
  {
    "name": "Caribou",
    "picPath": "./pictures/image5.png",
    "articul": "5",
    "color": "gray"
  },
  {
    "name": "Aqualang",
    "picPath": "./pictures/image6.png",
    "articul": "6",
    "color": "gray"
  },
  {
    "name": "Strange to ears",
    "picPath": "./pictures/image7.png",
    "articul": "7",
    "color": "gray"
  },
  {
    "name": "Ravenna",
    "picPath": "./pictures/image8.png",
    "articul": "8",
    "color": "gray"
  },
  {
    "name": "Hand",
    "picPath": "./pictures/image9.png",
    "articul": "9",
    "color": "gray"
  },
  {
    "name": "Plate",
    "picPath": "./pictures/image10.png",
    "articul": "10",
    "color": "gray"
  }
]
